<?xml version="1.0" encoding="UTF-8" standalone="no"?>
<!-- Created with Inkscape (http://www.inkscape.org/) -->

<svg
   width="100mm"
   height="100mm"
   viewBox="0 0 100 100"
   version="1.1"
   id="svg5"
   inkscape:version="1.2.1 (9c6d41e410, 2022-07-14)"
   sodipodi:docname="logos.svg"
   xmlns:inkscape="http://www.inkscape.org/namespaces/inkscape"
   xmlns:sodipodi="http://sodipodi.sourceforge.net/DTD/sodipodi-0.dtd"
   xmlns:xlink="http://www.w3.org/1999/xlink"
   xmlns="http://www.w3.org/2000/svg"
   xmlns:svg="http://www.w3.org/2000/svg">
  <sodipodi:namedview
     id="namedview7"
     pagecolor="#505050"
     bordercolor="#ffffff"
     borderopacity="1"
     inkscape:showpageshadow="0"
     inkscape:pageopacity="0"
     inkscape:pagecheckerboard="1"
     inkscape:deskcolor="#505050"
     inkscape:document-units="mm"
     showgrid="false"
     inkscape:zoom="1.76315"
     inkscape:cx="8048.6628"
     inkscape:cy="155.97085"
     inkscape:window-width="2560"
     inkscape:window-height="1403"
     inkscape:window-x="0"
     inkscape:window-y="0"
     inkscape:window-maximized="1"
     inkscape:current-layer="layer1"
     showguides="true" />
  <defs
     id="defs2">
    <linearGradient
       inkscape:collect="always"
       xlink:href="#linearGradient11134"
       id="linearGradient27190"
       gradientUnits="userSpaceOnUse"
       gradientTransform="matrix(0.10356914,0,0,-0.06922794,-95.178536,516.25782)"
       x1="1096"
       y1="325.36218"
       x2="1092"
       y2="-157.63782" />
    <linearGradient
       inkscape:collect="always"
       id="linearGradient11134">
      <stop
         style="stop-color:#3c6eb4;stop-opacity:1;"
         offset="0"
         id="stop11130" />
      <stop
         style="stop-color:#3c95b4;stop-opacity:1"
         offset="1"
         id="stop11132" />
    </linearGradient>
    <clipPath
       clipPathUnits="userSpaceOnUse"
       id="clipPath27142">
      <path
         style="opacity:1;fill:#294172;fill-opacity:1;stroke:none;stroke-width:1.32292;stroke-linecap:square;stroke-linejoin:round;stroke-miterlimit:4;stroke-dasharray:none;stroke-opacity:1"
         d="m -0.24605544,490.2668 v 31.50352 l 12.53462244,-9.0527 12.161014,9.2909 V 490.2668 Z"
         id="path27144"
         inkscape:connector-curvature="0" />
    </clipPath>
    <linearGradient
       inkscape:collect="always"
       xlink:href="#linearGradient2355"
       id="linearGradient3153"
       gradientUnits="userSpaceOnUse"
       x1="7.7686305"
       y1="498.85483"
       x2="12.403515"
       y2="498.44727" />
    <linearGradient
       inkscape:collect="always"
       id="linearGradient2355">
      <stop
         style="stop-color:#ffffff;stop-opacity:1;"
         offset="0"
         id="stop2351" />
      <stop
         style="stop-color:#ffffff;stop-opacity:0;"
         offset="1"
         id="stop2353" />
    </linearGradient>
  </defs>
  <g
     inkscape:label="Layer 1"
     inkscape:groupmode="layer"
     id="layer1"
     transform="translate(-770.00001)">
    <g
       id="g289905"
       transform="matrix(0.56854067,0,0,0.56854067,720.56899,-74.16097)">
      <text
         id="text27121"
         y="220.87402"
         x="153.95859"
         style="font-style:normal;font-weight:normal;font-size:14.8204px;line-height:1.25;font-family:sans-serif;letter-spacing:0px;word-spacing:0px;fill:#294172;fill-opacity:1;stroke:none;stroke-width:0.27605"
         xml:space="preserve"><tspan
           style="font-style:normal;font-variant:normal;font-weight:900;font-stretch:normal;font-family:Montserrat;-inkscape-font-specification:'Montserrat Heavy';letter-spacing:-0.254681px;fill:#294172;fill-opacity:1;stroke-width:0.27605"
           y="220.87402"
           x="153.95859"
           id="tspan27119"
           sodipodi:role="line">MAGAZINE</tspan></text>
      <g
         id="g2333"
         style="fill:#51a2da;fill-opacity:1;stroke-width:1.57539"
         transform="matrix(0.22043115,0,0,0.22043115,137.46164,176.3759)">
        <path
           d="m 96.729167,125.3578 c -3.595373,1.38954 -6.03555,4.80292 -6.045574,9.01632 -0.0105,4.41352 3.082522,10.10943 9.487987,10.15149 4.30838,0.0283 6.46291,-1.58283 7.62603,-2.6768 0.77153,-0.68369 0.8255,-1.87009 0.11854,-2.61974 -0.70838,-0.75106 -1.89761,-0.76906 -2.6268,-0.0385 -0.86818,0.81562 -2.14666,2.02425 -5.772524,1.62173 -1.555755,-0.17216 -3.227339,-1.43528 -3.785318,-2.40173 l 11.879842,-5.05073 c 0.9084,-0.40358 1.32573,-1.45803 0.94121,-2.37421 -2.12076,-4.1731 -5.88103,-7.92444 -11.823393,-5.62783 z m 7.456683,5.48995 -9.885684,4.22249 c -0.705852,-2.63428 2.187448,-5.73353 3.76568,-6.31024 2.366314,-0.86468 4.977204,0.10837 6.120004,2.08775 z"
           style="fill:#51a2da;fill-opacity:1;fill-rule:evenodd;stroke:none;stroke-width:1.6004"
           id="path2317"
           sodipodi:nodetypes="ssscccccccsccsc" />
        <path
           id="path2319"
           style="fill:#51a2da;fill-opacity:1;stroke-width:46.812;stroke-linecap:round;stroke-linejoin:round"
           d="m 142.75841,124.51519 a 10.043481,9.9623653 0 0 0 -10.04462,9.9635 10.043481,9.9623653 0 0 0 10.04462,9.96093 10.043481,9.9623653 0 0 0 10.04204,-9.96093 10.043481,9.9623653 0 0 0 -10.04204,-9.9635 z m 0,3.73185 a 6.2822799,6.2315417 0 0 1 6.28239,6.23165 6.2822799,6.2315417 0 0 1 -6.28239,6.23165 6.2822799,6.2315417 0 0 1 -6.2824,-6.23165 6.2822799,6.2315417 0 0 1 6.2824,-6.23165 z" />
        <path
           style="color:#000000;font-style:normal;font-variant:normal;font-weight:normal;font-stretch:normal;font-size:medium;line-height:normal;font-family:sans-serif;font-variant-ligatures:normal;font-variant-position:normal;font-variant-caps:normal;font-variant-numeric:normal;font-variant-alternates:normal;font-feature-settings:normal;text-indent:0;text-align:start;text-decoration:none;text-decoration-line:none;text-decoration-style:solid;text-decoration-color:#000000;letter-spacing:normal;word-spacing:normal;text-transform:none;writing-mode:lr-tb;direction:ltr;text-orientation:mixed;dominant-baseline:auto;baseline-shift:baseline;text-anchor:start;white-space:normal;shape-padding:0;clip-rule:nonzero;display:inline;overflow:visible;visibility:visible;isolation:auto;mix-blend-mode:normal;color-interpolation:sRGB;color-interpolation-filters:linearRGB;solid-color:#000000;solid-opacity:1;vector-effect:none;fill:#51a2da;fill-opacity:1;fill-rule:nonzero;stroke:none;stroke-width:9.60231;stroke-linecap:round;stroke-linejoin:round;stroke-miterlimit:4;stroke-dasharray:none;stroke-dashoffset:0;stroke-opacity:1;color-rendering:auto;image-rendering:auto;shape-rendering:auto;text-rendering:auto;enable-background:accumulate"
           d="m 157.27615,124.6433 c -1.59548,0 -1.86142,1.31669 -1.85308,1.84776 v 15.98997 c -0.0436,1.03365 0.81202,1.89464 1.88299,1.89464 1.07096,0 1.92667,-0.86099 1.88297,-1.89464 0,0 0.0284,-5.94671 0,-9.75342 -0.0284,-3.80671 3.06985,-4.63179 4.14789,-4.63179 0.80054,0 1.44015,0.44589 2.0745,0.42206 0.94151,-0.0354 1.71459,-0.6668 1.71459,-1.77397 -0.0283,-1.78855 -2.22269,-2.04245 -3.84053,-2.00941 -1.61785,0.0331 -2.9842,0.52982 -4.16721,1.2363 0,0 -0.24663,-1.3275 -1.84212,-1.3275 z"
           id="path2321"
           inkscape:connector-curvature="0"
           sodipodi:nodetypes="zccsczcsczcz" />
        <g
           style="fill:#51a2da;fill-opacity:1;stroke-width:2.56538"
           transform="matrix(1.7992734,0,0,1.7380239,67.446745,-121.99926)"
           id="g2325">
          <path
             style="color:#000000;font-style:normal;font-variant:normal;font-weight:normal;font-stretch:normal;font-size:medium;line-height:normal;font-family:sans-serif;font-variant-ligatures:normal;font-variant-position:normal;font-variant-caps:normal;font-variant-numeric:normal;font-variant-alternates:normal;font-feature-settings:normal;text-indent:0;text-align:start;text-decoration:none;text-decoration-line:none;text-decoration-style:solid;text-decoration-color:#000000;letter-spacing:normal;word-spacing:normal;text-transform:none;writing-mode:lr-tb;direction:ltr;text-orientation:mixed;dominant-baseline:auto;baseline-shift:baseline;text-anchor:start;white-space:normal;shape-padding:0;clip-rule:nonzero;display:inline;overflow:visible;visibility:visible;opacity:1;isolation:auto;mix-blend-mode:normal;color-interpolation:sRGB;color-interpolation-filters:linearRGB;solid-color:#000000;solid-opacity:1;vector-effect:none;fill:#51a2da;fill-opacity:1;fill-rule:nonzero;stroke:none;stroke-width:5.42999;stroke-linecap:butt;stroke-linejoin:miter;stroke-miterlimit:4;stroke-dasharray:none;stroke-dashoffset:0;stroke-opacity:1;color-rendering:auto;image-rendering:auto;shape-rendering:auto;text-rendering:auto;enable-background:accumulate"
             d="m 60.088341,141.88715 c -1.393394,0 -2.398273,0.42786 -3.13079,0.97048 -1.110459,0.82303 0.08453,2.54386 1.19499,1.72083 0.505399,-0.37438 0.881229,-0.57413 1.9358,-0.57413 1.312636,0.0273 2.368475,0.53812 2.368475,1.55443 -0.703746,0.461 -3.763534,0.84205 -5.406566,1.8093 -1.643032,0.96724 -1.555977,2.18804 -1.555977,2.98017 0,1.73757 1.769154,2.90976 3.301505,2.90976 1.532352,0 2.182891,-0.33275 3.682046,-1.39626 v 0.30438 c -0.04845,1.45961 2.09629,1.45961 2.047845,0 v -6.23787 c 0.0066,-2.58701 -1.787667,-4.00169 -4.437328,-4.04109 z m 2.439505,5.75572 c -5.12e-4,0.68595 0.0092,0.8837 -0.009,1.56941 -0.004,0.8235 -0.503683,1.20524 -1.026925,1.52032 -0.523236,0.31508 -1.586095,0.59147 -2.201906,0.62167 -0.710308,0.0243 -1.65271,-0.1418 -1.702203,-1.01389 5.12e-4,-0.5264 0.246817,-0.85289 0.65127,-1.21646 0.957742,-0.74385 2.255423,-0.99358 4.288768,-1.48105 z"
             id="path2323"
             inkscape:connector-curvature="0"
             sodipodi:nodetypes="ccccczszcccccscscccss" />
        </g>
        <path
           style="font-style:normal;font-variant:normal;font-weight:bold;font-stretch:normal;font-size:medium;line-height:25px;font-family:Comfortaa;-inkscape-font-specification:Comfortaa;letter-spacing:0px;word-spacing:0px;fill:#51a2da;fill-opacity:1;stroke:none;stroke-width:2.41737px;stroke-linecap:butt;stroke-linejoin:miter;stroke-opacity:1"
           d="m 128.56291,116.32562 c -1.15198,-0.0687 -2.00005,1.07152 -1.82333,2.15483 v 8.36367 c -3.63641,-3.04884 -9.55863,-2.83682 -12.91558,0.5392 -3.39481,3.02498 -4.03972,8.51062 -1.57068,12.28835 1.81366,2.85198 5.13136,4.88571 8.55043,4.72423 2.14993,-0.0196 4.2827,-0.9455 5.93583,-2.31651 -0.16962,1.08236 0.66623,2.22553 1.82333,2.15604 1.13581,0.0506 2.01523,-1.07045 1.84088,-2.15482 -0.0197,-8.04418 0.0197,-16.08885 -0.0197,-24.13274 -0.0591,-0.90718 -0.92676,-1.65309 -1.83241,-1.62225 z m -7.9771,12.01866 c 3.28298,-0.0857 6.21551,2.86987 6.15377,6.12271 0.069,3.25587 -2.87355,6.20634 -6.15377,6.12273 -3.11889,0.0827 -5.97784,-2.55935 -6.1372,-5.65665 -0.33212,-3.1928 2.28898,-6.30485 5.49957,-6.55826 0.21182,-0.0207 0.42464,-0.0306 0.63763,-0.0306 z"
           id="path2327"
           inkscape:connector-curvature="0"
           sodipodi:nodetypes="ccccccccccccccccccc" />
        <g
           style="fill:#51a2da;fill-opacity:1;stroke-width:2.63144"
           transform="matrix(1.7361841,0,0,1.7118711,84.821887,-122.89238)"
           id="g2331">
          <path
             style="font-style:normal;font-variant:normal;font-weight:bold;font-stretch:normal;font-size:medium;line-height:25px;font-family:Comfortaa;-inkscape-font-specification:Comfortaa;letter-spacing:0px;word-spacing:0px;fill:#51a2da;fill-opacity:1;stroke:none;stroke-width:5.56986;stroke-linecap:butt;stroke-linejoin:miter;stroke-miterlimit:4;stroke-dasharray:none;stroke-opacity:1"
             d="m -2.5312666,143.62929 v 11.47421 c -0.003,1.4145 2.12023294,1.4145 2.11718234,0 v -7.65727 H 1.7635608 c 0.5092674,0 0.9446445,-0.37386 0.9446445,-0.9741 0,-0.60024 -0.4664127,-0.9648 -0.9446445,-0.9648 h -2.17764176 v -1.76487 c 0,-1.1293 0.8711995,-2.06801 2.62476896,-2.04625 0.6099425,0.008 0.8261384,0.1567 1.048907,0.29442 1.2161282,0.81695 2.3869012,-1.07509 1.1131122,-1.79886 -0.7812122,-0.48483 -1.5111158,-0.65571 -2.3819993,-0.65571 -2.74449516,0 -4.5059235,2.11423 -4.5219745,4.09323 z"
             id="path2329"
             inkscape:connector-curvature="0"
             sodipodi:nodetypes="ccccczcccscccc" />
        </g>
      </g>
      <g
         id="g2369"
         style="stroke-width:0.745052"
         transform="matrix(1.3421873,0,0,1.3421873,111.89838,-456.15653)">
        <path
           sodipodi:nodetypes="ccccc"
           inkscape:connector-curvature="0"
           id="path27138"
           d="M -8.3303521,522.74017 H 32.050645 V 483.04222 H -8.3303521 Z"
           style="display:inline;opacity:1;fill:url(#linearGradient27190);fill-opacity:1;stroke:none;stroke-width:0.108337;stroke-miterlimit:4;stroke-dasharray:0.108337, 0.108337;stroke-dashoffset:0;stroke-opacity:1"
           clip-path="url(#clipPath27142)"
           transform="translate(0,-3.1749999)" />
        <g
           transform="matrix(0.44220227,0,0,0.44220227,20.784247,414.65874)"
           id="g27134"
           style="stroke-width:0.745052">
          <path
             inkscape:connector-curvature="0"
             id="path27128"
             d="m -19.905488,171.21682 c -8.849556,0 -16.024226,7.17111 -16.030606,16.01938 l -5.41e-4,-5.5e-4 v 12.40568 l 5.41e-4,4.8e-4 c 0.0044,2.00889 1.633819,3.63535 3.644123,3.63535 0.0044,0 0.01239,-4.8e-4 0.01745,-4.8e-4 l 5.58e-4,4.8e-4 h 12.373613 c 8.851107,-0.005 16.0250024,-7.17866 16.0250024,-16.02971 0,-8.85366 -7.1769764,-16.03063 -16.0306234,-16.03063 z"
             style="fill:#294172;fill-opacity:1;stroke-width:0.305365"
             inkscape:export-xdpi="96"
             inkscape:export-ydpi="96" />
        </g>
        <path
           style="opacity:1;fill:url(#linearGradient3153);fill-opacity:1;fill-rule:nonzero;stroke:none;stroke-width:0.262839"
           d="m 13.453302,493.28253 c 1.190351,0 2.314243,0.91209 2.314243,2.16922 0,0.1166 -5.48e-4,0.23333 -0.01964,0.36556 -0.03295,0.33448 -0.337897,0.57435 -0.670707,0.5272 -0.33281,-0.0477 -0.558561,-0.36277 -0.496988,-0.69336 0.0056,-0.0377 0.0076,-0.0976 0.0076,-0.1994 0,-0.71276 -0.582884,-0.98794 -1.134462,-0.98794 -0.551244,0 -1.048554,0.46354 -1.049869,0.98794 0.0095,0.6066 0,1.20886 0,1.81424 l 1.022678,-0.008 c 0.798741,-0.0165 0.807698,1.1874 0.0091,1.18129 l -1.031742,0.008 c -0.0027,0.4879 0.0038,0.3993 0.0015,0.64504 0,0 0.0088,0.59595 -0.0091,1.04835 -0.123471,1.32869 -1.254366,2.39128 -2.6133426,2.39128 -1.4404026,0 -2.6284476,-1.17845 -2.6284476,-2.6224 0.04327,-1.48545 1.228939,-2.65289 2.7205936,-2.63902 l 0.8308336,-0.006 v 1.17977 l -0.8308336,0.008 h -0.006 c -0.8198226,0.0242 -1.5213446,0.57977 -1.5347716,1.45773 0,0.79996 0.646484,1.44112 1.4486676,1.44112 0.8008536,0 1.4411156,-0.58329 1.4411156,-1.43961 0.0091,-1.42011 -0.0063,-2.98882 -0.0015,-4.46383 4.4e-4,-0.0829 0.0045,-0.14877 0.0136,-0.24018 0.135231,-1.09207 1.112078,-1.92452 2.217563,-1.92452 z"
           id="path2349" />
        <path
           id="path2359"
           style="fill:#ffffff;fill-opacity:1;fill-rule:nonzero;stroke:none;stroke-width:0.993413"
           d="m 472.74414,1617.834 v 0 c -4.17821,0 -7.86975,3.146 -8.38086,7.2735 -0.0344,0.3455 -0.0491,0.5949 -0.0508,0.9082 -0.0181,5.5748 0.0403,11.5037 0.006,16.8711 0,3.2365 -2.42042,5.4414 -5.44727,5.4414 -2.88544,0 -5.23262,-2.1974 -5.45312,-5.0156 h -4.45899 c 0.23209,5.2561 4.61419,9.4785 9.91211,9.4785 5.13629,0 9.41029,-4.0173 9.87696,-9.0391 0.0677,-1.7099 0.0352,-3.9609 0.0352,-3.9609 0.009,-0.9288 -0.0161,-0.5955 -0.006,-2.4395 l 3.89844,-0.029 c 3.01832,0.023 2.98566,-4.5272 -0.0332,-4.4648 l -3.86524,0.029 c 0,-2.2881 0.0359,-4.5628 0,-6.8555 0.005,-1.982 1.88336,-3.7344 3.9668,-3.7344 2.0847,0 4.28711,1.0405 4.28711,3.7344 0,0.3848 -0.006,0.6095 -0.0273,0.752 -0.23272,1.2494 0.61908,2.4408 1.87695,2.621 1.25786,0.1783 2.41062,-0.728 2.53516,-1.9921 0.0722,-0.4998 0.0742,-0.9402 0.0742,-1.3809 0,-4.7514 -4.24712,-8.1992 -8.74609,-8.1992 z"
           transform="matrix(0.26458333,0,0,0.26458333,-111.62695,65.230656)" />
      </g>
    </g>
  </g>
</svg>
