<?xml version="1.0" encoding="UTF-8" standalone="no"?>
<!-- Created with Inkscape (http://www.inkscape.org/) -->

<svg
   width="100mm"
   height="100mm"
   viewBox="0 0 100 100"
   version="1.1"
   id="svg5"
   inkscape:version="1.2.1 (9c6d41e410, 2022-07-14)"
   sodipodi:docname="logos.svg"
   xmlns:inkscape="http://www.inkscape.org/namespaces/inkscape"
   xmlns:sodipodi="http://sodipodi.sourceforge.net/DTD/sodipodi-0.dtd"
   xmlns="http://www.w3.org/2000/svg"
   xmlns:svg="http://www.w3.org/2000/svg">
  <sodipodi:namedview
     id="namedview7"
     pagecolor="#505050"
     bordercolor="#ffffff"
     borderopacity="1"
     inkscape:showpageshadow="0"
     inkscape:pageopacity="0"
     inkscape:pagecheckerboard="1"
     inkscape:deskcolor="#505050"
     inkscape:document-units="mm"
     showgrid="false"
     inkscape:zoom="1.76315"
     inkscape:cx="8048.6628"
     inkscape:cy="155.97085"
     inkscape:window-width="2560"
     inkscape:window-height="1403"
     inkscape:window-x="0"
     inkscape:window-y="0"
     inkscape:window-maximized="1"
     inkscape:current-layer="layer1"
     showguides="true" />
  <defs
     id="defs2">
    <clipPath
       clipPathUnits="userSpaceOnUse"
       id="clipPath26179">
      <path
         inkscape:connector-curvature="0"
         style="opacity:1;fill:#ffffff;fill-opacity:1;stroke:none;stroke-width:7.91055;stroke-miterlimit:4;stroke-dasharray:none;stroke-dashoffset:0;stroke-opacity:1;paint-order:normal"
         d="m 7473.123,4.3457812 c -4.028,-2.9684208 -9.2784,-2.6369058 -11.7708,0.745213 l -4.4986,6.1043488 c -2.4923,3.381816 -1.2545,8.495266 2.7735,11.463586 l 11.6151,8.559874 c 4.0277,2.968262 9.2767,2.635186 11.7689,-0.74663 l 4.4986,-6.104349 c 2.4925,-3.382119 1.2562,-8.494008 -2.7716,-11.462269 z m 30.5445,22.5097588 c -4.028,-2.968412 -9.2784,-2.636897 -11.7709,0.745222 l -4.4986,6.104349 c -2.4924,3.381656 -1.2545,8.495265 2.7735,11.463686 l 11.6151,8.559774 c 4.0279,2.96816 9.2767,2.635185 11.769,-0.746631 l 4.4986,-6.104349 c 2.4924,-3.382118 1.2562,-8.494007 -2.7716,-11.462269 z m 30.5444,22.509776 c -4.0279,-2.968421 -9.2784,-2.636906 -11.7708,0.745213 l -4.4986,6.104349 c -2.4923,3.381816 -1.2545,8.495266 2.7735,11.463687 l 11.6151,8.559672 c 4.0277,2.968363 9.2767,2.635287 11.7689,-0.746538 l 4.4986,-6.10434 c 2.4925,-3.382119 1.2562,-8.494008 -2.7716,-11.462269 z m -78.4478,-21.460494 c -4.028,-2.968412 -9.2803,-2.638314 -11.7728,0.743804 l -4.4986,6.104349 c -2.4925,3.381758 -1.2524,8.496583 2.7755,11.465003 l 11.6132,8.558356 c 4.0278,2.968262 9.2765,2.635489 11.7689,-0.746538 l 4.4986,-6.10434 c 2.4924,-3.382119 1.2562,-8.494008 -2.7716,-11.462269 z m 30.5445,22.509768 c -4.0279,-2.968359 -9.2803,-2.638315 -11.7728,0.743804 l -4.4986,6.104349 c -2.4924,3.382017 -1.2525,8.496582 2.7754,11.465095 l 11.6133,8.558264 c 4.0277,2.968362 9.2764,2.635479 11.7688,-0.74653 l 4.4986,-6.104349 c 2.4925,-3.382118 1.2562,-8.494007 -2.7715,-11.462269 z m 30.5425,22.50835 c -4.028,-2.968412 -9.2784,-2.636906 -11.7709,0.745221 l -4.4986,6.104349 c -2.4923,3.382018 -1.2544,8.495165 2.7735,11.463687 l 11.6152,8.559672 c 4.0278,2.968261 9.2765,2.635491 11.7689,-0.746529 l 4.4986,-6.104358 c 2.4924,-3.38211 1.2562,-8.493999 -2.7716,-11.46226 z m -78.451,-21.460178 c -4.0277,-2.968262 -9.2765,-2.635388 -11.7688,0.746529 l -4.4987,6.10445 c -2.4923,3.381917 -1.2562,8.493999 2.7716,11.462159 l 11.6151,8.559884 c 4.0277,2.968261 9.2786,2.636757 11.7708,-0.745213 l 4.4987,-6.10445 c 2.4923,-3.381917 1.2542,-8.495324 -2.7736,-11.463586 z m 30.5445,22.509758 c -4.0278,-2.968252 -9.2766,-2.635378 -11.7689,0.746539 l -4.4987,6.10445 c -2.4923,3.381916 -1.2562,8.494007 2.7716,11.462269 l 11.6151,8.559772 c 4.028,2.96842 9.2786,2.6367 11.7709,-0.74521 l 4.4986,-6.104452 c 2.4924,-3.381917 1.2545,-8.495164 -2.7735,-11.463585 z m 30.5444,22.509768 c -4.0278,-2.968262 -9.2765,-2.635379 -11.7688,0.746538 l -4.4987,6.104454 c -2.4923,3.3819 -1.2561,8.49389 2.7715,11.46226 l 11.6152,8.55978 c 4.028,2.96831 9.2785,2.6367 11.7709,-0.74517 l 4.4986,-6.10449 c 2.4924,-3.38187 1.2544,-8.49518 -2.7736,-11.46359 z"
         id="path26181" />
    </clipPath>
  </defs>
  <g
     inkscape:label="Layer 1"
     inkscape:groupmode="layer"
     id="layer1"
     transform="translate(-660.00001)">
    <g
       id="g289978"
       transform="matrix(1.1772822,0,0,1.1772822,460.00496,-112.6753)">
      <g
         style="display:inline;stroke-width:0.110032"
         clip-path="url(#clipPath26179)"
         transform="matrix(0.23586202,-0.20701529,0.17381878,0.28090777,-1564.2204,1653.4572)"
         id="g16554">
        <g
           style="stroke-width:0.110032"
           transform="translate(7183.9488,-55.738756)"
           id="g16494">
          <path
             id="path16436"
             style="fill:#9a61bc;stroke:none;stroke-width:0.110032"
             d="M 288.20007,69.57722 324.75259,54.13144 259.48886,53.22792 Z"
             inkscape:connector-curvature="0" />
          <path
             id="path16438"
             style="fill:#a771c6;stroke:none;stroke-width:0.110032"
             d="m 237.10236,58.95724 17.89061,20.73688 4.49589,-26.4662 z"
             inkscape:connector-curvature="0" />
          <path
             id="path16440"
             style="fill:#8463b9;stroke:none;stroke-width:0.110032"
             d="m 254.99297,79.69412 33.2071,-10.1169 -28.71121,-16.3493 z"
             inkscape:connector-curvature="0" />
          <path
             id="path16442"
             style="fill:#9060bb;stroke:none;stroke-width:0.110032"
             d="M 331.44348,94.12933 356.60306,67.74232 324.75259,54.13144 Z"
             inkscape:connector-curvature="0" />
          <path
             id="path16444"
             style="fill:#914ebb;stroke:none;stroke-width:0.110032"
             d="m 288.20007,69.57722 43.24341,24.55211 -6.69089,-39.99789 z"
             inkscape:connector-curvature="0" />
          <path
             id="path16446"
             style="fill:#9868c1;stroke:none;stroke-width:0.110032"
             d="M 293.35999,101.99045 331.44348,94.12933 288.20007,69.57722 Z"
             inkscape:connector-curvature="0" />
          <path
             id="path16448"
             style="fill:#8669be;stroke:none;stroke-width:0.110032"
             d="m 254.99297,79.69412 38.36702,22.29633 -5.15992,-32.41323 z"
             inkscape:connector-curvature="0" />
          <path
             id="path16450"
             style="fill:#876ebd;stroke:none;stroke-width:0.110032"
             d="m 257.86429,106.3718 35.4957,-4.38135 -38.36702,-22.29633 z"
             inkscape:connector-curvature="0" />
          <path
             id="path16452"
             style="fill:#8e65bc;stroke:none;stroke-width:0.110032"
             d="m 237.10236,58.95724 -11.25103,65.85874 29.14164,-45.12186 z"
             inkscape:connector-curvature="0" />
          <path
             id="path16454"
             style="fill:#a076c0;stroke:none;stroke-width:0.110032"
             d="M 225.85133,124.81598 257.86429,106.3718 254.99297,79.69412 Z"
             inkscape:connector-curvature="0" />
          <path
             id="path16456"
             style="fill:#9662be;stroke:none;stroke-width:0.110032"
             d="m 293.35999,101.99045 29.57806,25.06164 8.50543,-32.92276 z"
             inkscape:connector-curvature="0" />
          <path
             id="path16458"
             style="fill:#9e61b7;stroke:none;stroke-width:0.110032"
             d="m 331.44348,94.12933 43.53558,36.41254 -18.376,-62.79955 z"
             inkscape:connector-curvature="0" />
          <path
             id="path16460"
             style="fill:#9858b8;stroke:none;stroke-width:0.110032"
             d="m 268.28824,130.81702 25.07175,-28.82657 -35.4957,4.38135 z"
             inkscape:connector-curvature="0" />
          <path
             id="path16462"
             style="fill:#9c73c6;stroke:none;stroke-width:0.110032"
             d="m 322.93805,127.05209 52.04101,3.48978 -43.53558,-36.41254 z"
             inkscape:connector-curvature="0" />
          <path
             id="path16464"
             style="fill:#ad6abc;stroke:none;stroke-width:0.110032"
             d="m 245.30269,146.69241 12.5616,-40.32061 -32.01296,18.44418 z"
             inkscape:connector-curvature="0" />
          <path
             id="path16466"
             style="fill:#9576bc;stroke:none;stroke-width:0.110032"
             d="M 245.30269,146.69241 268.28824,130.81702 257.86429,106.3718 Z"
             inkscape:connector-curvature="0" />
          <path
             id="path16468"
             style="fill:#a564bc;stroke:none;stroke-width:0.110032"
             d="m 290.75668,150.42624 2.60331,-48.43579 -25.07175,28.82657 z"
             inkscape:connector-curvature="0" />
          <path
             id="path16470"
             style="fill:#ac6ac1;stroke:none;stroke-width:0.110032"
             d="m 290.75668,150.42624 32.18137,-23.37415 -29.57806,-25.06164 z"
             inkscape:connector-curvature="0" />
          <path
             id="path16472"
             style="fill:#9e69bd;stroke:none;stroke-width:0.110032"
             d="m 346.32712,153.48355 28.65194,-22.94168 -52.04101,-3.48978 z"
             inkscape:connector-curvature="0" />
          <path
             id="path16474"
             style="fill:#9d67bd;stroke:none;stroke-width:0.110032"
             d="m 290.75668,150.42624 22.5932,13.7529 9.58817,-37.12705 z"
             inkscape:connector-curvature="0" />
          <path
             id="path16476"
             style="fill:#8a5bb6;stroke:none;stroke-width:0.110032"
             d="m 313.34988,164.17914 32.97724,-10.69559 -23.38907,-26.43146 z"
             inkscape:connector-curvature="0" />
          <path
             id="path16478"
             style="fill:#806dc2;stroke:none;stroke-width:0.110032"
             d="m 245.30269,146.69241 45.45399,3.73383 -22.46844,-19.60922 z"
             inkscape:connector-curvature="0" />
          <path
             id="path16480"
             style="fill:#a476ba;stroke:none;stroke-width:0.110032"
             d="m 253.25826,175.67953 37.49842,-25.25329 -45.45399,-3.73383 z"
             inkscape:connector-curvature="0" />
          <path
             id="path16482"
             style="fill:#a57ac0;stroke:none;stroke-width:0.110032"
             d="m 372.41409,184.25388 2.56497,-53.71201 -28.65194,22.94168 z"
             inkscape:connector-curvature="0" />
          <path
             id="path16484"
             style="fill:#7d5abb;stroke:none;stroke-width:0.110032"
             d="m 313.34988,164.17914 21.95563,23.45727 11.02161,-34.15286 z"
             inkscape:connector-curvature="0" />
          <path
             id="path16486"
             style="fill:#a973bc;stroke:none;stroke-width:0.110032"
             d="m 335.30551,187.63641 37.10858,-3.38253 -26.08697,-30.77033 z"
             inkscape:connector-curvature="0" />
          <path
             id="path16488"
             style="fill:#a172c1;stroke:none;stroke-width:0.110032"
             d="m 253.25826,175.67953 60.09162,-11.50039 -22.5932,-13.7529 z"
             inkscape:connector-curvature="0" />
          <path
             id="path16490"
             style="fill:#9a6bbd;stroke:none;stroke-width:0.110032"
             d="m 225.85133,124.81598 27.40693,50.86355 -7.95557,-28.98712 z"
             inkscape:connector-curvature="0" />
          <path
             id="path16492"
             style="fill:#986ebd;stroke:none;stroke-width:0.110032"
             d="m 253.25826,175.67953 82.04725,11.95688 -21.95563,-23.45727 z"
             inkscape:connector-curvature="0" />
        </g>
        <path
           id="path16496"
           style="fill:#9a61bc;stroke:none;stroke-width:0.110032"
           d="m 7472.1489,13.838464 36.5525,-15.44578 -65.2637,-0.90352 z"
           inkscape:connector-curvature="0" />
        <path
           id="path16498"
           style="fill:#a771c6;stroke:none;stroke-width:0.110032"
           d="m 7421.0512,3.218484 17.8906,20.73688 4.4959,-26.4662 z"
           inkscape:connector-curvature="0" />
        <path
           id="path16500"
           style="fill:#8463b9;stroke:none;stroke-width:0.110032"
           d="m 7438.9418,23.955364 33.2071,-10.1169 -28.7112,-16.3493 z"
           inkscape:connector-curvature="0" />
        <path
           id="path16502"
           style="fill:#9060bb;stroke:none;stroke-width:0.110032"
           d="m 7515.3923,38.390574 25.1596,-26.38701 -31.8505,-13.61088 z"
           inkscape:connector-curvature="0" />
        <path
           id="path16504"
           style="fill:#914ebb;stroke:none;stroke-width:0.110032"
           d="m 7472.1489,13.838464 43.2434,24.55211 -6.6909,-39.99789 z"
           inkscape:connector-curvature="0" />
        <path
           id="path16506"
           style="fill:#9868c1;stroke:none;stroke-width:0.110032"
           d="m 7477.3088,46.251694 38.0835,-7.86112 -43.2434,-24.55211 z"
           inkscape:connector-curvature="0" />
        <path
           id="path16508"
           style="fill:#8669be;stroke:none;stroke-width:0.110032"
           d="m 7438.9418,23.955364 38.367,22.29633 -5.1599,-32.41323 z"
           inkscape:connector-curvature="0" />
        <path
           id="path16510"
           style="fill:#876ebd;stroke:none;stroke-width:0.110032"
           d="m 7441.8131,50.633044 35.4957,-4.38135 -38.367,-22.29633 z"
           inkscape:connector-curvature="0" />
        <path
           id="path16512"
           style="fill:#8e65bc;stroke:none;stroke-width:0.110032"
           d="m 7421.0512,3.218484 -11.2511,65.85874 29.1417,-45.12186 z"
           inkscape:connector-curvature="0" />
        <path
           id="path16514"
           style="fill:#a076c0;stroke:none;stroke-width:0.110032"
           d="m 7409.8001,69.077224 32.013,-18.44418 -2.8713,-26.67768 z"
           inkscape:connector-curvature="0" />
        <path
           id="path16516"
           style="fill:#9662be;stroke:none;stroke-width:0.110032"
           d="m 7477.3088,46.251694 29.578,25.06164 8.5055,-32.92276 z"
           inkscape:connector-curvature="0" />
        <path
           id="path16518"
           style="fill:#9e61b7;stroke:none;stroke-width:0.110032"
           d="m 7515.3923,38.390574 43.5356,36.41254 -18.376,-62.79955 z"
           inkscape:connector-curvature="0" />
        <path
           id="path16520"
           style="fill:#9858b8;stroke:none;stroke-width:0.110032"
           d="m 7452.237,75.078264 25.0718,-28.82657 -35.4957,4.38135 z"
           inkscape:connector-curvature="0" />
        <path
           id="path16522"
           style="fill:#9c73c6;stroke:none;stroke-width:0.110032"
           d="m 7506.8868,71.313334 52.0411,3.48978 -43.5356,-36.41254 z"
           inkscape:connector-curvature="0" />
        <path
           id="path16524"
           style="fill:#ad6abc;stroke:none;stroke-width:0.110032"
           d="m 7429.2515,90.953654 12.5616,-40.32061 -32.013,18.44418 z"
           inkscape:connector-curvature="0" />
        <path
           id="path16526"
           style="fill:#9576bc;stroke:none;stroke-width:0.110032"
           d="m 7429.2515,90.953654 22.9855,-15.87539 -10.4239,-24.44522 z"
           inkscape:connector-curvature="0" />
        <path
           id="path16528"
           style="fill:#a564bc;stroke:none;stroke-width:0.110032"
           d="m 7474.7055,94.687484 2.6033,-48.43579 -25.0718,28.82657 z"
           inkscape:connector-curvature="0" />
        <path
           id="path16530"
           style="fill:#ac6ac1;stroke:none;stroke-width:0.110032"
           d="m 7474.7055,94.687484 32.1813,-23.37415 -29.578,-25.06164 z"
           inkscape:connector-curvature="0" />
        <path
           id="path16532"
           style="fill:#9e69bd;stroke:none;stroke-width:0.110032"
           d="m 7530.2759,97.744794 28.652,-22.94168 -52.0411,-3.48978 z"
           inkscape:connector-curvature="0" />
        <path
           id="path16534"
           style="fill:#9d67bd;stroke:none;stroke-width:0.110032"
           d="m 7474.7055,94.687481 22.5932,13.752899 9.5881,-37.127049 z"
           inkscape:connector-curvature="0" />
        <path
           id="path16536"
           style="fill:#8a5bb6;stroke:none;stroke-width:0.110032"
           d="m 7497.2987,108.44038 32.9772,-10.695586 -23.3891,-26.43146 z"
           inkscape:connector-curvature="0" />
        <path
           id="path16538"
           style="fill:#806dc2;stroke:none;stroke-width:0.110032"
           d="m 7429.2515,90.953654 45.454,3.73383 -22.4685,-19.60922 z"
           inkscape:connector-curvature="0" />
        <path
           id="path16540"
           style="fill:#a476ba;stroke:none;stroke-width:0.110032"
           d="m 7437.2071,119.94077 37.4984,-25.253286 -45.454,-3.73383 z"
           inkscape:connector-curvature="0" />
        <path
           id="path16542"
           style="fill:#a57ac0;stroke:none;stroke-width:0.110032"
           d="m 7556.3629,128.51512 2.565,-53.712006 -28.652,22.94168 z"
           inkscape:connector-curvature="0" />
        <path
           id="path16544"
           style="fill:#7d5abb;stroke:none;stroke-width:0.110032"
           d="m 7497.2987,108.44038 21.9556,23.45727 11.0216,-34.152856 z"
           inkscape:connector-curvature="0" />
        <path
           id="path16546"
           style="fill:#a973bc;stroke:none;stroke-width:0.110032"
           d="m 7519.2543,131.89765 37.1086,-3.38253 -26.087,-30.770326 z"
           inkscape:connector-curvature="0" />
        <path
           id="path16548"
           style="fill:#a172c1;stroke:none;stroke-width:0.110032"
           d="m 7437.2071,119.94077 60.0916,-11.50039 -22.5932,-13.752896 z"
           inkscape:connector-curvature="0" />
        <path
           id="path16550"
           style="fill:#9a6bbd;stroke:none;stroke-width:0.110032"
           d="m 7409.8001,69.077224 27.407,50.863546 -7.9556,-28.987116 z"
           inkscape:connector-curvature="0" />
        <path
           id="path16552"
           style="fill:#986ebd;stroke:none;stroke-width:0.110032"
           d="m 7437.2071,119.94077 82.0472,11.95688 -21.9556,-23.45727 z"
           inkscape:connector-curvature="0" />
      </g>
      <text
         xml:space="preserve"
         style="font-style:normal;font-weight:normal;font-size:7.95941px;line-height:0%;font-family:sans-serif;letter-spacing:0px;word-spacing:0px;fill:#294172;fill-opacity:1;stroke:none;stroke-width:0.282222"
         x="195.80324"
         y="168.64903"
         id="text26185"><tspan
           sodipodi:role="line"
           id="tspan26183"
           x="195.80324"
           y="168.64903"
           style="font-style:normal;font-variant:normal;font-weight:500;font-stretch:normal;font-size:13.5179px;line-height:125%;font-family:Montserrat;-inkscape-font-specification:'Montserrat Medium';text-align:start;writing-mode:lr-tb;text-anchor:start;fill:#294172;fill-opacity:1;stroke-width:0.282222">IoT</tspan></text>
      <g
         id="g2275"
         style="fill:#51a2da;fill-opacity:1;stroke-width:1.27854"
         transform="matrix(0.27161047,0,0,0.27161047,174.58486,115.99323)">
        <path
           d="m 96.729167,125.3578 c -3.595373,1.38954 -6.03555,4.80292 -6.045574,9.01632 -0.0105,4.41352 3.082522,10.10943 9.487987,10.15149 4.30838,0.0283 6.46291,-1.58283 7.62603,-2.6768 0.77153,-0.68369 0.8255,-1.87009 0.11854,-2.61974 -0.70838,-0.75106 -1.89761,-0.76906 -2.6268,-0.0385 -0.86818,0.81562 -2.14666,2.02425 -5.772524,1.62173 -1.555755,-0.17216 -3.227339,-1.43528 -3.785318,-2.40173 l 11.879842,-5.05073 c 0.9084,-0.40358 1.32573,-1.45803 0.94121,-2.37421 -2.12076,-4.1731 -5.88103,-7.92444 -11.823393,-5.62783 z m 7.456683,5.48995 -9.885684,4.22249 c -0.705852,-2.63428 2.187448,-5.73353 3.76568,-6.31024 2.366314,-0.86468 4.977204,0.10837 6.120004,2.08775 z"
           style="fill:#51a2da;fill-opacity:1;fill-rule:evenodd;stroke:none;stroke-width:1.29884"
           id="path2259"
           sodipodi:nodetypes="ssscccccccsccsc" />
        <path
           id="path2261"
           style="fill:#51a2da;fill-opacity:1;stroke-width:37.9912;stroke-linecap:round;stroke-linejoin:round"
           d="m 142.75841,124.51519 a 10.043481,9.9623653 0 0 0 -10.04462,9.9635 10.043481,9.9623653 0 0 0 10.04462,9.96093 10.043481,9.9623653 0 0 0 10.04204,-9.96093 10.043481,9.9623653 0 0 0 -10.04204,-9.9635 z m 0,3.73185 a 6.2822799,6.2315417 0 0 1 6.28239,6.23165 6.2822799,6.2315417 0 0 1 -6.28239,6.23165 6.2822799,6.2315417 0 0 1 -6.2824,-6.23165 6.2822799,6.2315417 0 0 1 6.2824,-6.23165 z" />
        <path
           style="color:#000000;font-style:normal;font-variant:normal;font-weight:normal;font-stretch:normal;font-size:medium;line-height:normal;font-family:sans-serif;font-variant-ligatures:normal;font-variant-position:normal;font-variant-caps:normal;font-variant-numeric:normal;font-variant-alternates:normal;font-feature-settings:normal;text-indent:0;text-align:start;text-decoration:none;text-decoration-line:none;text-decoration-style:solid;text-decoration-color:#000000;letter-spacing:normal;word-spacing:normal;text-transform:none;writing-mode:lr-tb;direction:ltr;text-orientation:mixed;dominant-baseline:auto;baseline-shift:baseline;text-anchor:start;white-space:normal;shape-padding:0;clip-rule:nonzero;display:inline;overflow:visible;visibility:visible;isolation:auto;mix-blend-mode:normal;color-interpolation:sRGB;color-interpolation-filters:linearRGB;solid-color:#000000;solid-opacity:1;vector-effect:none;fill:#51a2da;fill-opacity:1;fill-rule:nonzero;stroke:none;stroke-width:7.79293;stroke-linecap:round;stroke-linejoin:round;stroke-miterlimit:4;stroke-dasharray:none;stroke-dashoffset:0;stroke-opacity:1;color-rendering:auto;image-rendering:auto;shape-rendering:auto;text-rendering:auto;enable-background:accumulate"
           d="m 157.27615,124.6433 c -1.59548,0 -1.86142,1.31669 -1.85308,1.84776 v 15.98997 c -0.0436,1.03365 0.81202,1.89464 1.88299,1.89464 1.07096,0 1.92667,-0.86099 1.88297,-1.89464 0,0 0.0284,-5.94671 0,-9.75342 -0.0284,-3.80671 3.06985,-4.63179 4.14789,-4.63179 0.80054,0 1.44015,0.44589 2.0745,0.42206 0.94151,-0.0354 1.71459,-0.6668 1.71459,-1.77397 -0.0283,-1.78855 -2.22269,-2.04245 -3.84053,-2.00941 -1.61785,0.0331 -2.9842,0.52982 -4.16721,1.2363 0,0 -0.24663,-1.3275 -1.84212,-1.3275 z"
           id="path2263"
           inkscape:connector-curvature="0"
           sodipodi:nodetypes="zccsczcsczcz" />
        <g
           style="fill:#51a2da;fill-opacity:1;stroke-width:2.08199"
           transform="matrix(1.7992734,0,0,1.7380239,67.446745,-121.99926)"
           id="g2267">
          <path
             style="color:#000000;font-style:normal;font-variant:normal;font-weight:normal;font-stretch:normal;font-size:medium;line-height:normal;font-family:sans-serif;font-variant-ligatures:normal;font-variant-position:normal;font-variant-caps:normal;font-variant-numeric:normal;font-variant-alternates:normal;font-feature-settings:normal;text-indent:0;text-align:start;text-decoration:none;text-decoration-line:none;text-decoration-style:solid;text-decoration-color:#000000;letter-spacing:normal;word-spacing:normal;text-transform:none;writing-mode:lr-tb;direction:ltr;text-orientation:mixed;dominant-baseline:auto;baseline-shift:baseline;text-anchor:start;white-space:normal;shape-padding:0;clip-rule:nonzero;display:inline;overflow:visible;visibility:visible;opacity:1;isolation:auto;mix-blend-mode:normal;color-interpolation:sRGB;color-interpolation-filters:linearRGB;solid-color:#000000;solid-opacity:1;vector-effect:none;fill:#51a2da;fill-opacity:1;fill-rule:nonzero;stroke:none;stroke-width:4.40682;stroke-linecap:butt;stroke-linejoin:miter;stroke-miterlimit:4;stroke-dasharray:none;stroke-dashoffset:0;stroke-opacity:1;color-rendering:auto;image-rendering:auto;shape-rendering:auto;text-rendering:auto;enable-background:accumulate"
             d="m 60.088341,141.88715 c -1.393394,0 -2.398273,0.42786 -3.13079,0.97048 -1.110459,0.82303 0.08453,2.54386 1.19499,1.72083 0.505399,-0.37438 0.881229,-0.57413 1.9358,-0.57413 1.312636,0.0273 2.368475,0.53812 2.368475,1.55443 -0.703746,0.461 -3.763534,0.84205 -5.406566,1.8093 -1.643032,0.96724 -1.555977,2.18804 -1.555977,2.98017 0,1.73757 1.769154,2.90976 3.301505,2.90976 1.532352,0 2.182891,-0.33275 3.682046,-1.39626 v 0.30438 c -0.04845,1.45961 2.09629,1.45961 2.047845,0 v -6.23787 c 0.0066,-2.58701 -1.787667,-4.00169 -4.437328,-4.04109 z m 2.439505,5.75572 c -5.12e-4,0.68595 0.0092,0.8837 -0.009,1.56941 -0.004,0.8235 -0.503683,1.20524 -1.026925,1.52032 -0.523236,0.31508 -1.586095,0.59147 -2.201906,0.62167 -0.710308,0.0243 -1.65271,-0.1418 -1.702203,-1.01389 5.12e-4,-0.5264 0.246817,-0.85289 0.65127,-1.21646 0.957742,-0.74385 2.255423,-0.99358 4.288768,-1.48105 z"
             id="path2265"
             inkscape:connector-curvature="0"
             sodipodi:nodetypes="ccccczszcccccscscccss" />
        </g>
        <path
           style="font-style:normal;font-variant:normal;font-weight:bold;font-stretch:normal;font-size:medium;line-height:25px;font-family:Comfortaa;-inkscape-font-specification:Comfortaa;letter-spacing:0px;word-spacing:0px;fill:#51a2da;fill-opacity:1;stroke:none;stroke-width:1.96187px;stroke-linecap:butt;stroke-linejoin:miter;stroke-opacity:1"
           d="m 128.56291,116.32562 c -1.15198,-0.0687 -2.00005,1.07152 -1.82333,2.15483 v 8.36367 c -3.63641,-3.04884 -9.55863,-2.83682 -12.91558,0.5392 -3.39481,3.02498 -4.03972,8.51062 -1.57068,12.28835 1.81366,2.85198 5.13136,4.88571 8.55043,4.72423 2.14993,-0.0196 4.2827,-0.9455 5.93583,-2.31651 -0.16962,1.08236 0.66623,2.22553 1.82333,2.15604 1.13581,0.0506 2.01523,-1.07045 1.84088,-2.15482 -0.0197,-8.04418 0.0197,-16.08885 -0.0197,-24.13274 -0.0591,-0.90718 -0.92676,-1.65309 -1.83241,-1.62225 z m -7.9771,12.01866 c 3.28298,-0.0857 6.21551,2.86987 6.15377,6.12271 0.069,3.25587 -2.87355,6.20634 -6.15377,6.12273 -3.11889,0.0827 -5.97784,-2.55935 -6.1372,-5.65665 -0.33212,-3.1928 2.28898,-6.30485 5.49957,-6.55826 0.21182,-0.0207 0.42464,-0.0306 0.63763,-0.0306 z"
           id="path2269"
           inkscape:connector-curvature="0"
           sodipodi:nodetypes="ccccccccccccccccccc" />
        <g
           style="fill:#51a2da;fill-opacity:1;stroke-width:2.1356"
           transform="matrix(1.7361841,0,0,1.7118711,84.821887,-122.89238)"
           id="g2273">
          <path
             style="font-style:normal;font-variant:normal;font-weight:bold;font-stretch:normal;font-size:medium;line-height:25px;font-family:Comfortaa;-inkscape-font-specification:Comfortaa;letter-spacing:0px;word-spacing:0px;fill:#51a2da;fill-opacity:1;stroke:none;stroke-width:4.52034;stroke-linecap:butt;stroke-linejoin:miter;stroke-miterlimit:4;stroke-dasharray:none;stroke-opacity:1"
             d="m -2.5312666,143.62929 v 11.47421 c -0.003,1.4145 2.12023294,1.4145 2.11718234,0 v -7.65727 H 1.7635608 c 0.5092674,0 0.9446445,-0.37386 0.9446445,-0.9741 0,-0.60024 -0.4664127,-0.9648 -0.9446445,-0.9648 h -2.17764176 v -1.76487 c 0,-1.1293 0.8711995,-2.06801 2.62476896,-2.04625 0.6099425,0.008 0.8261384,0.1567 1.048907,0.29442 1.2161282,0.81695 2.3869012,-1.07509 1.1131122,-1.79886 -0.7812122,-0.48483 -1.5111158,-0.65571 -2.3819993,-0.65571 -2.74449516,0 -4.5059235,2.11423 -4.5219745,4.09323 z"
             id="path2271"
             inkscape:connector-curvature="0"
             sodipodi:nodetypes="ccccczcccscccc" />
        </g>
      </g>
    </g>
  </g>
</svg>
